^G:\PROJECTS VISUAL STUDIO\SOURCE\REPOS\ALGORITMI----4----LABA\ALGORITMI----4----LABA\DEBUG\ALGORITMI----4----LABA.OBJ
G:\PROJECTS VISUAL STUDIO\SOURCE\REPOS\ALGORITMI----4----LABA\ALGORITMI----4----LABA\DEBUG\ALGORITMI----4----LABA.ILK
G:\PROJECTS VISUAL STUDIO\SOURCE\REPOS\ALGORITMI----4----LABA\DEBUG\ALGORITMI----4----LABA.EXE
G:\PROJECTS VISUAL STUDIO\SOURCE\REPOS\ALGORITMI----4----LABA\DEBUG\ALGORITMI----4----LABA.PDB
